<svg viewBox="0 0 76 76">
  <path d="M69.2 50H6.8C3.1 50 0 53.1 0 56.9V65c0 3.9 3.1 7 6.8 7h10.3c.5 2.3 2.5 4 4.9 4 2.8 0 5-2.2 5-5s-2.2-5-5-5c-2.4 0-4.4 1.7-4.9 4H6.8C4.2 70 2 67.8 2 65.1V57c0-2.8 2.2-5 4.8-5h62.3c2.7 0 4.8 2.2 4.8 4.9V65c0 2.7-2.2 4.9-4.8 4.9H34.8c-.6 0-1 .5-1 1s.4 1 1 1h34.3c3.8 0 6.8-3.1 6.8-6.9v-8.1c.1-3.8-3-6.9-6.7-6.9zM22 68c1.7 0 3 1.3 3 3s-1.3 3-3 3-3-1.3-3-3 1.3-3 3-3z"/><path class="st29" d="M60 56c-2.4 0-4.4 1.7-4.9 4H12c-.5 0-1 .4-1 1s.4 1 1 1h43.1c.5 2.3 2.5 4 4.9 4 2.8 0 5-2.2 5-5s-2.2-5-5-5zm0 8c-1.7 0-3-1.3-3-3s1.3-3 3-3 3 1.3 3 3-1.3 3-3 3zm9.2-42H34.9c-.5-2.3-2.5-4-4.9-4-2.8 0-5 2.2-5 5s2.2 5 5 5c2.4 0 4.4-1.7 4.9-4h34.3c2.7 0 4.8 2.2 4.8 4.9V37c0 2.7-2.2 4.9-4.8 4.9H6.8C4.2 42 2 39.8 2 37.1V29c0-2.8 2.2-5 4.8-5h11.4c.6 0 1-.5 1-1s-.4-1-1-1H6.8C3.1 22 0 25.1 0 28.9V37c0 3.9 3.1 7 6.8 7h62.3c3.8 0 6.8-3.1 6.8-6.9V29c.1-3.9-3-7-6.7-7zM30 26c-1.7 0-3-1.3-3-3s1.3-3 3-3 3 1.3 3 3-1.3 3-3 3z"/><path class="st29" d="M60 28c-2.4 0-4.4 1.7-4.9 4H12c-.5 0-1 .4-1 1s.4 1 1 1h43.1c.5 2.3 2.5 4 4.9 4 2.8 0 5-2.2 5-5s-2.2-5-5-5zm0 8c-1.7 0-3-1.3-3-3s1.3-3 3-3 3 1.3 3 3-1.3 3-3 3z"/>
</svg>
